%YAML 1.1
%TAG !u! tag:unity3d.com,2011:
--- !u!21 &-3475492408298927126
Material:
  serializedVersion: 6
  m_ObjectHideFlags: 0
  m_CorrespondingSourceObject: {fileID: 0}
  m_PrefabInstance: {fileID: 0}
  m_PrefabAsset: {fileID: 0}
  m_Name: Inter-SemiBoldItalic Atlas Material
  m_Shader: {fileID: 4800000, guid: 68e6db2ebdc24f95958faec2be5558d6, type: 3}
  m_ShaderKeywords: 
  m_LightmapFlags: 4
  m_EnableInstancingVariants: 0
  m_DoubleSidedGI: 0
  m_CustomRenderQueue: -1
  stringTagMap: {}
  disabledShaderPasses: []
  m_SavedProperties:
    serializedVersion: 3
    m_TexEnvs:
    - _BumpMap:
        m_Texture: {fileID: 0}
        m_Scale: {x: 1, y: 1}
        m_Offset: {x: 0, y: 0}
    - _Cube:
        m_Texture: {fileID: 0}
        m_Scale: {x: 1, y: 1}
        m_Offset: {x: 0, y: 0}
    - _FaceTex:
        m_Texture: {fileID: 0}
        m_Scale: {x: 1, y: 1}
        m_Offset: {x: 0, y: 0}
    - _MainTex:
        m_Texture: {fileID: -1034034111223619409}
        m_Scale: {x: 1, y: 1}
        m_Offset: {x: 0, y: 0}
    - _OutlineTex:
        m_Texture: {fileID: 0}
        m_Scale: {x: 1, y: 1}
        m_Offset: {x: 0, y: 0}
    m_Floats:
    - _Ambient: 0.5
    - _Bevel: 0.5
    - _BevelClamp: 0
    - _BevelOffset: 0
    - _BevelRoundness: 0
    - _BevelWidth: 0
    - _BumpFace: 0
    - _BumpOutline: 0
    - _ColorMask: 15
    - _CullMode: 0
    - _Diffuse: 0.5
    - _FaceDilate: 0
    - _FaceUVSpeedX: 0
    - _FaceUVSpeedY: 0
    - _GlowInner: 0.05
    - _GlowOffset: 0
    - _GlowOuter: 0.05
    - _GlowPower: 0.75
    - _GradientScale: 10
    - _LightAngle: 3.1416
    - _MaskSoftnessX: 0
    - _MaskSoftnessY: 0
    - _OutlineSoftness: 0
    - _OutlineUVSpeedX: 0
    - _OutlineUVSpeedY: 0
    - _OutlineWidth: 0
    - _PerspectiveFilter: 0.875
    - _Reflectivity: 10
    - _ScaleRatioA: 1
    - _ScaleRatioB: 1
    - _ScaleRatioC: 1
    - _ScaleX: 1
    - _ScaleY: 1
    - _ShaderFlags: 0
    - _Sharpness: 0
    - _SpecularPower: 2
    - _Stencil: 0
    - _StencilComp: 8
    - _StencilOp: 0
    - _StencilReadMask: 255
    - _StencilWriteMask: 255
    - _TextureHeight: 1024
    - _TextureWidth: 1024
    - _UnderlayDilate: 0
    - _UnderlayOffsetX: 0
    - _UnderlayOffsetY: 0
    - _UnderlaySoftness: 0
    - _VertexOffsetX: 0
    - _VertexOffsetY: 0
    - _WeightBold: 0.75
    - _WeightNormal: 0
    m_Colors:
    - _ClipRect: {r: -32767, g: -32767, b: 32767, a: 32767}
    - _EnvMatrixRotation: {r: 0, g: 0, b: 0, a: 0}
    - _FaceColor: {r: 1, g: 1, b: 1, a: 1}
    - _GlowColor: {r: 0, g: 1, b: 0, a: 0.5}
    - _MaskCoord: {r: 0, g: 0, b: 32767, a: 32767}
    - _OutlineColor: {r: 0, g: 0, b: 0, a: 1}
    - _ReflectFaceColor: {r: 0, g: 0, b: 0, a: 1}
    - _ReflectOutlineColor: {r: 0, g: 0, b: 0, a: 1}
    - _SpecularColor: {r: 1, g: 1, b: 1, a: 1}
    - _UnderlayColor: {r: 0, g: 0, b: 0, a: 0.5}
--- !u!28 &-1034034111223619409
Texture2D:
  m_ObjectHideFlags: 0
  m_CorrespondingSourceObject: {fileID: 0}
  m_PrefabInstance: {fileID: 0}
  m_PrefabAsset: {fileID: 0}
  m_Name: Inter-SemiBoldItalic Atlas
  m_ImageContentsHash:
    serializedVersion: 2
    Hash: 00000000000000000000000000000000
  m_ForcedFallbackFormat: 4
  m_DownscaleFallback: 0
  serializedVersion: 2
  m_Width: 0
  m_Height: 0
  m_CompleteImageSize: 0
  m_TextureFormat: 1
  m_MipCount: 1
  m_IsReadable: 1
  m_IgnoreMasterTextureLimit: 0
  m_IsPreProcessed: 0
  m_StreamingMipmaps: 0
  m_StreamingMipmapsPriority: 0
  m_AlphaIsTransparency: 0
  m_ImageCount: 1
  m_TextureDimension: 2
  m_TextureSettings:
    serializedVersion: 2
    m_FilterMode: 1
    m_Aniso: 1
    m_MipBias: 0
    m_WrapU: 0
    m_WrapV: 0
    m_WrapW: 0
  m_LightmapFormat: 0
  m_ColorSpace: 0
  image data: 0
  _typelessdata: 
  m_StreamData:
    offset: 0
    size: 0
    path: 
--- !u!114 &11400000
MonoBehaviour:
  m_ObjectHideFlags: 0
  m_CorrespondingSourceObject: {fileID: 0}
  m_PrefabInstance: {fileID: 0}
  m_PrefabAsset: {fileID: 0}
  m_GameObject: {fileID: 0}
  m_Enabled: 1
  m_EditorHideFlags: 0
  m_Script: {fileID: 11500000, guid: 71c1514a6bd24e1e882cebbe1904ce04, type: 3}
  m_Name: Inter-SemiBoldItalic SDF
  m_EditorClassIdentifier: 
  hashCode: 0
  material: {fileID: -3475492408298927126}
  materialHashCode: 0
  m_Version: 1.1.0
  m_SourceFontFileGUID: 318909fc63a39f34a817252c4346feb1
  m_SourceFontFile_EditorRef: {fileID: 12800000, guid: 318909fc63a39f34a817252c4346feb1,
    type: 3}
  m_SourceFontFile: {fileID: 12800000, guid: 318909fc63a39f34a817252c4346feb1, type: 3}
  m_AtlasPopulationMode: 1
  m_FaceInfo:
    m_FaceIndex: 0
    m_FamilyName: Inter
    m_StyleName: Semi Bold Italic
    m_PointSize: 90
    m_Scale: 1
    m_LineHeight: 108.920456
    m_AscentLine: 87.1875
    m_CapLine: 66
    m_MeanLine: 50
    m_Baseline: 0
    m_DescentLine: -21.732954
    m_SuperscriptOffset: 87.1875
    m_SuperscriptSize: 0.5
    m_SubscriptOffset: -21.732954
    m_SubscriptSize: 0.5
    m_UnderlineOffset: -18.089489
    m_UnderlineThickness: 7.766335
    m_StrikethroughOffset: 20
    m_StrikethroughThickness: 7.766335
    m_TabWidth: 22
  m_GlyphTable: []
  m_CharacterTable: []
  m_AtlasTextures:
  - {fileID: -1034034111223619409}
  m_AtlasTextureIndex: 0
  m_IsMultiAtlasTexturesEnabled: 0
  m_ClearDynamicDataOnBuild: 0
  m_UsedGlyphRects: []
  m_FreeGlyphRects:
  - m_X: 0
    m_Y: 0
    m_Width: 1023
    m_Height: 1023
  m_fontInfo:
    Name: 
    PointSize: 0
    Scale: 0
    CharacterCount: 0
    LineHeight: 0
    Baseline: 0
    Ascender: 0
    CapHeight: 0
    Descender: 0
    CenterLine: 0
    SuperscriptOffset: 0
    SubscriptOffset: 0
    SubSize: 0
    Underline: 0
    UnderlineThickness: 0
    strikethrough: 0
    strikethroughThickness: 0
    TabWidth: 0
    Padding: 0
    AtlasWidth: 0
    AtlasHeight: 0
  atlas: {fileID: 0}
  m_AtlasWidth: 1024
  m_AtlasHeight: 1024
  m_AtlasPadding: 9
  m_AtlasRenderMode: 4165
  m_glyphInfoList: []
  m_KerningTable:
    kerningPairs: []
  m_FontFeatureTable:
    m_GlyphPairAdjustmentRecords: []
  fallbackFontAssets: []
  m_FallbackFontAssetTable: []
  m_CreationSettings:
    sourceFontFileName: 
    sourceFontFileGUID: 318909fc63a39f34a817252c4346feb1
    pointSizeSamplingMode: 0
    pointSize: 90
    padding: 9
    packingMode: 0
    atlasWidth: 1024
    atlasHeight: 1024
    characterSetSelectionMode: 7
    characterSequence: 
    referencedFontAssetGUID: 
    referencedTextAssetGUID: 
    fontStyle: 0
    fontStyleModifier: 0
    renderMode: 4165
    includeFontFeatures: 0
  m_FontWeightTable:
  - regularTypeface: {fileID: 0}
    italicTypeface: {fileID: 0}
  - regularTypeface: {fileID: 0}
    italicTypeface: {fileID: 0}
  - regularTypeface: {fileID: 0}
    italicTypeface: {fileID: 0}
  - regularTypeface: {fileID: 0}
    italicTypeface: {fileID: 0}
  - regularTypeface: {fileID: 0}
    italicTypeface: {fileID: 0}
  - regularTypeface: {fileID: 0}
    italicTypeface: {fileID: 0}
  - regularTypeface: {fileID: 0}
    italicTypeface: {fileID: 0}
  - regularTypeface: {fileID: 0}
    italicTypeface: {fileID: 0}
  - regularTypeface: {fileID: 0}
    italicTypeface: {fileID: 0}
  - regularTypeface: {fileID: 0}
    italicTypeface: {fileID: 0}
  fontWeights: []
  normalStyle: 0
  normalSpacingOffset: 0
  boldStyle: 0.75
  boldSpacing: 7
  italicStyle: 35
  tabSize: 10
